‘Big’ Data with R and ggplot
…
Benny has a brother now. He wanted one. And then he got one.

Some Datasets

palmerpenguins::penguins

# A tibble: 344 × 8
   species island    bill_length_mm bill_depth_mm flipper_length_mm body_mass_g
   <fct>   <fct>              <dbl>         <dbl>             <int>       <int>
 1 Adelie  Torgersen           39.1          18.7               181        3750
 2 Adelie  Torgersen           39.5          17.4               186        3800
 3 Adelie  Torgersen           40.3          18                 195        3250
 4 Adelie  Torgersen           NA            NA                  NA          NA
 5 Adelie  Torgersen           36.7          19.3               193        3450
 6 Adelie  Torgersen           39.3          20.6               190        3650
 7 Adelie  Torgersen           38.9          17.8               181        3625
 8 Adelie  Torgersen           39.2          19.6               195        4675
 9 Adelie  Torgersen           34.1          18.1               193        3475
10 Adelie  Torgersen           42            20.2               190        4250
# ℹ 334 more rows
# ℹ 2 more variables: sex <fct>, year <int>

N = 344

Some Datasets

gapminder::gapminder

# A tibble: 1,704 × 6
   country     continent  year lifeExp      pop gdpPercap
   <fct>       <fct>     <int>   <dbl>    <int>     <dbl>
 1 Afghanistan Asia       1952    28.8  8425333      779.
 2 Afghanistan Asia       1957    30.3  9240934      821.
 3 Afghanistan Asia       1962    32.0 10267083      853.
 4 Afghanistan Asia       1967    34.0 11537966      836.
 5 Afghanistan Asia       1972    36.1 13079460      740.
 6 Afghanistan Asia       1977    38.4 14880372      786.
 7 Afghanistan Asia       1982    39.9 12881816      978.
 8 Afghanistan Asia       1987    40.8 13867957      852.
 9 Afghanistan Asia       1992    41.7 16317921      649.
10 Afghanistan Asia       1997    41.8 22227415      635.
# ℹ 1,694 more rows

N = 1,704

Some Datasets

socviz::gss_lon

# A tibble: 62,466 × 25
    year    id ballot age   degree race  sex   siblings kids  bigregion income16
   <dbl> <dbl> <labe> <lab> <fct>  <fct> <fct> <fct>    <fct> <fct>     <fct>   
 1  1972     1 NA     23    Bache… White Fema… 3        0     Midwest   <NA>    
 2  1972     2 NA     70    Lt Hi… White Male  4        4+    Midwest   <NA>    
 3  1972     3 NA     48    High … White Fema… 5        4+    Midwest   <NA>    
 4  1972     4 NA     27    Bache… White Fema… 5        0     Midwest   <NA>    
 5  1972     5 NA     61    High … White Fema… 2        2     Midwest   <NA>    
 6  1972     6 NA     26    High … White Male  1        0     Midwest   <NA>    
 7  1972     7 NA     28    High … White Male  6+       2     Midwest   <NA>    
 8  1972     8 NA     27    Bache… White Male  1        0     Midwest   <NA>    
 9  1972     9 NA     21    High … Black Fema… 2        2     South     <NA>    
10  1972    10 NA     30    High … Black Fema… 6+       4+    South     <NA>    
# ℹ 62,456 more rows
# ℹ 14 more variables: religion <fct>, marital <fct>, padeg <fct>, madeg <fct>,
#   partyid <fct>, polviews <fct>, happy <fct>, partners_rc <fct>, grass <fct>,
#   zodiac <fct>, pres12 <labelled>, wtssall <dbl>, vpsu <dbl>, vstrat <dbl>

N = 62,466

Some Datasets

nycflights13::flights

# A tibble: 336,776 × 19
    year month   day dep_time sched_dep_time dep_delay arr_time sched_arr_time
   <int> <int> <int>    <int>          <int>     <dbl>    <int>          <int>
 1  2013     1     1      517            515         2      830            819
 2  2013     1     1      533            529         4      850            830
 3  2013     1     1      542            540         2      923            850
 4  2013     1     1      544            545        -1     1004           1022
 5  2013     1     1      554            600        -6      812            837
 6  2013     1     1      554            558        -4      740            728
 7  2013     1     1      555            600        -5      913            854
 8  2013     1     1      557            600        -3      709            723
 9  2013     1     1      557            600        -3      838            846
10  2013     1     1      558            600        -2      753            745
# ℹ 336,766 more rows
# ℹ 11 more variables: arr_delay <dbl>, carrier <chr>, flight <int>,
#   tailnum <chr>, origin <chr>, dest <chr>, air_time <dbl>, distance <dbl>,
#   hour <dbl>, minute <dbl>, time_hour <dttm>

N = 336,766

Some Datasets

covdata::stmf

# A tibble: 580,395 × 17
   country_code cname    iso2  continent iso3   year  week sex   split split_sex
   <chr>        <chr>    <chr> <chr>     <chr> <dbl> <dbl> <chr> <dbl>     <dbl>
 1 AUS          Austral… AU    Oceania   AUS    2015     1 m         1         0
 2 AUS          Austral… AU    Oceania   AUS    2015     1 m         1         0
 3 AUS          Austral… AU    Oceania   AUS    2015     1 m         1         0
 4 AUS          Austral… AU    Oceania   AUS    2015     1 m         1         0
 5 AUS          Austral… AU    Oceania   AUS    2015     1 m         1         0
 6 AUS          Austral… AU    Oceania   AUS    2015     1 f         1         0
 7 AUS          Austral… AU    Oceania   AUS    2015     1 f         1         0
 8 AUS          Austral… AU    Oceania   AUS    2015     1 f         1         0
 9 AUS          Austral… AU    Oceania   AUS    2015     1 f         1         0
10 AUS          Austral… AU    Oceania   AUS    2015     1 f         1         0
# ℹ 580,385 more rows
# ℹ 7 more variables: forecast <dbl>, approx_date <date>, age_group <chr>,
#   death_count <dbl>, death_rate <dbl>, deaths_total <dbl>, rate_total <dbl>

N = 580,395

Some Datasets

covdata::apple_mobility

# A tibble: 2,254,515 × 7
   country sub_region subregion_and_city geo_type date       transportation_type
   <chr>   <chr>      <chr>              <chr>    <date>     <chr>              
 1 Albania Total      Total              country… 2020-01-13 driving            
 2 Albania Total      Total              country… 2020-01-14 driving            
 3 Albania Total      Total              country… 2020-01-15 driving            
 4 Albania Total      Total              country… 2020-01-16 driving            
 5 Albania Total      Total              country… 2020-01-17 driving            
 6 Albania Total      Total              country… 2020-01-18 driving            
 7 Albania Total      Total              country… 2020-01-19 driving            
 8 Albania Total      Total              country… 2020-01-20 driving            
 9 Albania Total      Total              country… 2020-01-21 driving            
10 Albania Total      Total              country… 2020-01-22 driving            
# ℹ 2,254,505 more rows
# ℹ 1 more variable: score <dbl>

N = 2,254,515

Some Datasets

apple_health_all

# A tibble: 7,808,311 × 10
   rowid type       sourceName sourceVersion device unit  creationDate startDate
   <int> <chr>      <chr>      <chr>         <chr>  <chr> <chr>        <chr>    
 1     1 HKQuantit… Withings   6050301       <<HKD… count 2024-08-31 … 2024-05-…
 2     2 HKQuantit… Withings   6050301       <<HKD… count 2024-08-31 … 2024-05-…
 3     3 HKQuantit… Withings   6050301       <<HKD… count 2024-08-31 … 2024-05-…
 4     4 HKQuantit… Withings   6050301       <<HKD… count 2024-08-31 … 2024-05-…
 5     5 HKQuantit… Withings   6050301       <<HKD… count 2024-08-31 … 2024-05-…
 6     6 HKQuantit… Withings   6050301       <<HKD… count 2024-08-31 … 2024-05-…
 7     7 HKQuantit… Withings   6050301       <<HKD… count 2024-08-31 … 2024-05-…
 8     8 HKQuantit… Withings   6050301       <<HKD… count 2024-08-31 … 2024-05-…
 9     9 HKQuantit… Withings   6050301       <<HKD… count 2024-08-31 … 2024-05-…
10    10 HKQuantit… Withings   6050301       <<HKD… count 2024-08-31 … 2024-05-…
# ℹ 7,808,301 more rows
# ℹ 2 more variables: endDate <chr>, value <chr>
…
Binning and Tiling Can Work

okboomer

# A tibble: 1,644 × 12
    year month n_days births total_pop births_pct births_pct_day date      
   <dbl> <dbl>  <dbl>  <dbl>     <dbl>      <dbl>          <dbl> <date>    
 1  1938     1     31  51820  41215000    0.00126           40.6 1938-01-01
 2  1938     2     28  47421  41215000    0.00115           41.1 1938-02-01
 3  1938     3     31  54887  41215000    0.00133           43.0 1938-03-01
 4  1938     4     30  54623  41215000    0.00133           44.2 1938-04-01
 5  1938     5     31  56853  41215000    0.00138           44.5 1938-05-01
 6  1938     6     30  53145  41215000    0.00129           43.0 1938-06-01
 7  1938     7     31  53214  41215000    0.00129           41.6 1938-07-01
 8  1938     8     31  50444  41215000    0.00122           39.5 1938-08-01
 9  1938     9     30  50545  41215000    0.00123           40.9 1938-09-01
10  1938    10     31  50079  41215000    0.00122           39.2 1938-10-01
# ℹ 1,634 more rows
# ℹ 4 more variables: seasonal <dbl>, trend <dbl>, remainder <dbl>,
#   country <chr>

Binning and Tiling Can Work

okboomer |>
  filter(country == "United States")

# A tibble: 996 × 12
    year month n_days births total_pop births_pct births_pct_day date      
   <dbl> <dbl>  <dbl>  <dbl>     <dbl>      <dbl>          <dbl> <date>    
 1  1933     1     31 180545 125579000    0.00144           46.4 1933-01-01
 2  1933     2     28 165986 125579000    0.00132           47.2 1933-02-01
 3  1933     3     31 183762 125579000    0.00146           47.2 1933-03-01
 4  1933     4     30 171354 125579000    0.00136           45.5 1933-04-01
 5  1933     5     31 174811 125579000    0.00139           44.9 1933-05-01
 6  1933     6     30 169255 125579000    0.00135           44.9 1933-06-01
 7  1933     7     31 180880 125579000    0.00144           46.5 1933-07-01
 8  1933     8     31 181856 125579000    0.00145           46.7 1933-08-01
 9  1933     9     30 167637 125579000    0.00133           44.5 1933-09-01
10  1933    10     31 167055 125579000    0.00133           42.9 1933-10-01
# ℹ 986 more rows
# ℹ 4 more variables: seasonal <dbl>, trend <dbl>, remainder <dbl>,
#   country <chr>
…
okboomer |>
  filter(country == "United States") |>
    mutate(year_fct =
             factor(year,
                    levels = unique(year),
                    ordered = TRUE),
           month_fct = factor(month,
                              levels = rev(c(1:12)),
                              labels = rev(c("Jan", "Feb",
                                  "Mar", "Apr", "May",
                                  "Jun", "Jul", "Aug",
                                  "Sep", "Oct", "Nov", "Dec")),
                              ordered = TRUE))

# A tibble: 996 × 14
    year month n_days births total_pop births_pct births_pct_day date      
   <dbl> <dbl>  <dbl>  <dbl>     <dbl>      <dbl>          <dbl> <date>    
 1  1933     1     31 180545 125579000    0.00144           46.4 1933-01-01
 2  1933     2     28 165986 125579000    0.00132           47.2 1933-02-01
 3  1933     3     31 183762 125579000    0.00146           47.2 1933-03-01
 4  1933     4     30 171354 125579000    0.00136           45.5 1933-04-01
 5  1933     5     31 174811 125579000    0.00139           44.9 1933-05-01
 6  1933     6     30 169255 125579000    0.00135           44.9 1933-06-01
 7  1933     7     31 180880 125579000    0.00144           46.5 1933-07-01
 8  1933     8     31 181856 125579000    0.00145           46.7 1933-08-01
 9  1933     9     30 167637 125579000    0.00133           44.5 1933-09-01
10  1933    10     31 167055 125579000    0.00133           42.9 1933-10-01
# ℹ 986 more rows
# ℹ 6 more variables: seasonal <dbl>, trend <dbl>, remainder <dbl>,
#   country <chr>, year_fct <ord>, month_fct <ord>
…
  filter(country == "United States") |>
    mutate(year_fct =
             factor(year,
                    levels = unique(year),
                    ordered = TRUE),
           month_fct = factor(month,
                              levels = rev(c(1:12)),
                              labels = rev(c("Jan", "Feb",
                                  "Mar", "Apr", "May",
                                  "Jun", "Jul", "Aug",
                                  "Sep", "Oct", "Nov", "Dec")),
                              ordered = TRUE)) |>
    select(year, month, year_fct, month_fct, everything())

# A tibble: 996 × 14
    year month year_fct month_fct n_days births total_pop births_pct
   <dbl> <dbl> <ord>    <ord>      <dbl>  <dbl>     <dbl>      <dbl>
 1  1933     1 1933     Jan           31 180545 125579000    0.00144
 2  1933     2 1933     Feb           28 165986 125579000    0.00132
 3  1933     3 1933     Mar           31 183762 125579000    0.00146
 4  1933     4 1933     Apr           30 171354 125579000    0.00136
 5  1933     5 1933     May           31 174811 125579000    0.00139
 6  1933     6 1933     Jun           30 169255 125579000    0.00135
 7  1933     7 1933     Jul           31 180880 125579000    0.00144
 8  1933     8 1933     Aug           31 181856 125579000    0.00145
 9  1933     9 1933     Sep           30 167637 125579000    0.00133
10  1933    10 1933     Oct           31 167055 125579000    0.00133
# ℹ 986 more rows
# ℹ 6 more variables: births_pct_day <dbl>, date <date>, seasonal <dbl>,
#   trend <dbl>, remainder <dbl>, country <chr>
…
Weak Associations

df

# A tibble: 50,000 × 2
       x     y
   <dbl> <dbl>
 1  55.9  34.6
 2  41.4  61.1
 3  65.1  45.7
 4  50.4  45.3
 5  64.5  70.3
 6  55.8  81.7
 7  36.1  19.0
 8  27.8  81.2
 9  47.6  55.1
10  21.2  30.8
# ℹ 49,990 more rows
…
Covid Symptoms

covid_df <- read_csv(here("examples", "covid-symptoms.csv"))

symptoms <- c("Anosmia", "Cough", "Fatigue", 
              "Diarrhea", "Breath", "Fever")
names(symptoms) <- symptoms
symptoms

   Anosmia      Cough    Fatigue   Diarrhea     Breath      Fever 
 "Anosmia"    "Cough"  "Fatigue" "Diarrhea"   "Breath"    "Fever" 

covid_df

# A tibble: 1,764 × 7
   subset  Anosmia Cough Fatigue Diarrhea Breath Fever
   <chr>   <lgl>   <lgl> <lgl>   <lgl>    <lgl>  <lgl>
 1 Anosmia TRUE    FALSE FALSE   FALSE    FALSE  FALSE
 2 Anosmia TRUE    FALSE FALSE   FALSE    FALSE  FALSE
 3 Anosmia TRUE    FALSE FALSE   FALSE    FALSE  FALSE
 4 Anosmia TRUE    FALSE FALSE   FALSE    FALSE  FALSE
 5 Anosmia TRUE    FALSE FALSE   FALSE    FALSE  FALSE
 6 Anosmia TRUE    FALSE FALSE   FALSE    FALSE  FALSE
 7 Anosmia TRUE    FALSE FALSE   FALSE    FALSE  FALSE
 8 Anosmia TRUE    FALSE FALSE   FALSE    FALSE  FALSE
 9 Anosmia TRUE    FALSE FALSE   FALSE    FALSE  FALSE
10 Anosmia TRUE    FALSE FALSE   FALSE    FALSE  FALSE
# ℹ 1,754 more rows
…
Other cases

stmf

# A tibble: 580,395 × 17
   country_code cname    iso2  continent iso3   year  week sex   split split_sex
   <chr>        <chr>    <chr> <chr>     <chr> <dbl> <dbl> <chr> <dbl>     <dbl>
 1 AUS          Austral… AU    Oceania   AUS    2015     1 m         1         0
 2 AUS          Austral… AU    Oceania   AUS    2015     1 m         1         0
 3 AUS          Austral… AU    Oceania   AUS    2015     1 m         1         0
 4 AUS          Austral… AU    Oceania   AUS    2015     1 m         1         0
 5 AUS          Austral… AU    Oceania   AUS    2015     1 m         1         0
 6 AUS          Austral… AU    Oceania   AUS    2015     1 f         1         0
 7 AUS          Austral… AU    Oceania   AUS    2015     1 f         1         0
 8 AUS          Austral… AU    Oceania   AUS    2015     1 f         1         0
 9 AUS          Austral… AU    Oceania   AUS    2015     1 f         1         0
10 AUS          Austral… AU    Oceania   AUS    2015     1 f         1         0
# ℹ 580,385 more rows
# ℹ 7 more variables: forecast <dbl>, approx_date <date>, age_group <chr>,
#   death_count <dbl>, death_rate <dbl>, deaths_total <dbl>, rate_total <dbl>

What we’re interested in

stmf |>
  filter(sex == "b", year > 2014 & year < 2020) |> 
  select(cname, iso3, year:sex, age_group, death_rate, rate_total)

# A tibble: 49,310 × 8
   cname     iso3   year  week sex   age_group death_rate rate_total
   <chr>     <chr> <dbl> <dbl> <chr> <chr>          <dbl>      <dbl>
 1 Australia AUS    2015     1 b     0-14        0.000360    0.00639
 2 Australia AUS    2015     1 b     15-64       0.00184     0.00639
 3 Australia AUS    2015     1 b     65-74       0.0112      0.00639
 4 Australia AUS    2015     1 b     75-84       0.0378      0.00639
 5 Australia AUS    2015     1 b     85+         0.127       0.00639
 6 Australia AUS    2015     2 b     0-14        0.000334    0.00605
 7 Australia AUS    2015     2 b     15-64       0.00172     0.00605
 8 Australia AUS    2015     2 b     65-74       0.0108      0.00605
 9 Australia AUS    2015     2 b     75-84       0.0341      0.00605
10 Australia AUS    2015     2 b     85+         0.124       0.00605
# ℹ 49,300 more rows
…
rate_max_rank <- stmf |>
  filter(sex == "b", year == 2020) |>
  group_by(country_code) |>
  summarize(covid_max = max(rate_total, na.rm = TRUE)) |>
  mutate(covid_max_rank = rank(covid_max))

Mortality rankings: mean and max

rate_rank

# A tibble: 38 × 3
   country_code mean_rate rate_rank
   <chr>            <dbl>     <dbl>
 1 AUS            0.00653         5
 2 AUT            0.00923        19
 3 BEL            0.00960        21
 4 BGR            0.0153         38
 5 CAN            0.00750         9
 6 CHE            0.00790        11
 7 CHL            0.00604         3
 8 CZE            0.0104         26
 9 DEUTNP         0.0113         30
10 DNK            0.00928        20
# ℹ 28 more rows

rate_max_rank

# A tibble: 38 × 3
   country_code covid_max covid_max_rank
   <chr>            <dbl>          <dbl>
 1 AUS            0.00707              3
 2 AUT            0.0149              18
 3 BEL            0.0193              26
 4 BGR            0.0356              38
 5 CAN            0.00950              8
 6 CHE            0.0133              15
 7 CHL            0.0116              12
 8 CZE            0.0206              31
 9 DEUTNP         0.0160              22
10 DNK            0.0114              11
# ℹ 28 more rows
…
df <- stmf |>
  filter(sex == "b", year > 2014, year < 2021,
         country_code %in% c("AUT", "BEL", "CHE", "DEUTNP", "DNK", "ESP", "FIN", "FRATNP", "GBR_SCO", "GBRTENW",
                             "GRC", "HUN", "ITA", "LUX", "POL", "NLD", "NOR", "PRT", "SWE", "USA")) |>
  filter(!(year == 2020 & week > 53)) |>
  group_by(cname, year, week) |>
  mutate(yr_ind = year %in% 2020) |>
  slice(1) |>
  left_join(rate_rank, by = "country_code") |>
  left_join(rate_max_rank, by = "country_code")

df

# A tibble: 6,279 × 22
# Groups:   cname, year, week [6,279]
   country_code cname   iso2  continent iso3   year  week sex   split split_sex
   <chr>        <chr>   <chr> <chr>     <chr> <dbl> <dbl> <chr> <dbl>     <dbl>
 1 AUT          Austria AT    Europe    AUT    2015     1 b         0         0
 2 AUT          Austria AT    Europe    AUT    2015     2 b         0         0
 3 AUT          Austria AT    Europe    AUT    2015     3 b         0         0
 4 AUT          Austria AT    Europe    AUT    2015     4 b         0         0
 5 AUT          Austria AT    Europe    AUT    2015     5 b         0         0
 6 AUT          Austria AT    Europe    AUT    2015     6 b         0         0
 7 AUT          Austria AT    Europe    AUT    2015     7 b         0         0
 8 AUT          Austria AT    Europe    AUT    2015     8 b         0         0
 9 AUT          Austria AT    Europe    AUT    2015     9 b         0         0
10 AUT          Austria AT    Europe    AUT    2015    10 b         0         0
# ℹ 6,269 more rows
# ℹ 12 more variables: forecast <dbl>, approx_date <date>, age_group <chr>,
#   death_count <dbl>, death_rate <dbl>, deaths_total <dbl>, rate_total <dbl>,
#   yr_ind <lgl>, mean_rate <dbl>, rate_rank <dbl>, covid_max <dbl>,
#   covid_max_rank <dbl>
…
